Introduction to AbNames • AbNames
…
nrow(alias_results)
#> [1] 2900

id_cols <- c("HGNC_ID", "HGNC_SYMBOL", "ENSEMBL_ID", "UNIPROT_ID")

# Remove matches to several genes, select just columns of interest

alias_results %>%
    dplyr::select(matches("ID|HGNC"), name) %>% # Select ID and HGNC columns
    unique() %>% # Collapse results with same ID from different queries
    
    # Collapse multi-subunit entries, convert "NA" to NA
    dplyr::summarise(dplyr::across(all_of(id_cols), ~toString(unique(.x)))) %>%
    dplyr::mutate(dplyr::across(all_of(id_cols), ~na_if(.x, "NA")))   
#> # A tibble: 2,608 × 5
#>    ID                         HGNC_ID    HGNC_SYMBOL ENSEMBL_ID      UNIPROT_ID
#>    <chr>                      <chr>      <chr>       <chr>           <chr>     
#>  1 2B4__Wu_2021               HGNC:18171 CD244       ENSG00000122223 Q9BZW8    
#>  2 4.1BB__Wu_2021             HGNC:11924 TNFRSF9     ENSG00000049249 Q07011    
#>  3 4.1BBL__Wu_2021            HGNC:11939 TNFSF9      ENSG00000125657 P41273    
#>  4 Annexin V__Kotliarov_2020  HGNC:543   ANXA5       ENSG00000164111 P08758    
#>  5 B220 (CD45R)__Hao_2021     HGNC:9666  PTPRC       NA              NA        
#>  6 B220 (CD45R)__Mimitou_2019 HGNC:9666  PTPRC       NA              NA        
#>  7 B7-H4__Hao_2021            HGNC:28873 VTCN1       ENSG00000134258 Q7Z7D3    
#>  8 B7-H4__Liu_2021            HGNC:28873 VTCN1       ENSG00000134258 Q7Z7D3    
#>  9 B7-H4__Mimitou_2021        HGNC:28873 VTCN1       ENSG00000134258 Q7Z7D3    
#> 10 B7-H4__Qian_2020           HGNC:28873 VTCN1       ENSG00000134258 Q7Z7D3    
#> # … with 2,598 more rows
…
