Standardize a SingleCellExperiment • AbNames
…
df <- data.frame(Antigen = rownames(altExp(sce_citeseq, "ADT")))
df <- matchToCiteseq(df)

# Print entries that differ from the original
df[! df$Antigen == df$Antigen_std, ]

## # A tibble: 21 × 3
##    Antigen_std Antigen           n_matched
##    <chr>       <chr>                 <int>
##  1 B220        B220 (CD45R)              6
##  2 B7-H1       B7-H1 (PD-L1)             1
##  3 CD117       C-kit (CD117)            18
##  4 CD197       CCR7                     26
##  5 CD223       CD223 (lag3)             18
##  6 CD26        CD26 (Adenosine)         17
##  7 CD366       CD366 (tim3)             18
##  8 CD152       CTLA4                    18
##  9 CD326       EpCAM (CD326)            11
## 10 CD127       IL7Ralpha (CD127)        29
## # … with 11 more rows
…
